Electronics and Measurement Techniques/Module 2 data/default.csv

#Digilent WaveForms Oscilloscope Acquisition
#Device Name: Discovery2
#Serial Number: SN:210321AA27BA
#Date Time: 2019-10-15 21:59:30.758
#Sample rate: 800000Hz
#Samples: 8192
#Trigger: Source: Channel 1 Type: Edge Condition: Rising Level: 0 V Hyst.: Auto HoldOff: 0 s
#Channel 1: Range: 500 mV/div Offset: -850 mV Attenuation: 1 X
#Channel 2: Range: 500 mV/div Offset: 0 V Attenuation: 1 X
#Wavegen Channel 1: Running
#Mode: Simple
#Type: DC
#Offset: 1 V

Time (s),Channel 1 (V),Channel 2 (V)
-0.00512,3.617966521019492,0.2044303662152606
-0.00511875,3.617966521019492,0.2047675258615282
-0.0051175,3.617966521019492,0.2047675258615282
-0.00511625,3.617966521019492,0.2047675258615282
-0.005115,3.617966521019492,0.2044303662152606
-0.00511375,3.617966521019492,0.2051046855077957
-0.0051125,3.617966521019492,0.2054418451540633
-0.00511125,3.617966521019492,0.2047675258615285
-0.00511,3.617966521019492,0.2044303662152606
-0.00510875,3.617966521019492,0.2047675258615284
-0.0051075,3.617966521019492,0.2051046855077957
-0.00510625,3.617966521019492,0.2044303662152606
-0.005105,3.617966521019492,0.2044303662152606
-0.00510375,3.617966521019492,0.2054418451540633
-0.0051025,3.617966521019492,0.2047675258615282
-0.00510125,3.617966521019492,0.2044303662152606
-0.0051,3.617966521019492,0.204767525861528
-0.00509875,3.617966521019492,0.2047675258615282
-0.0050975,3.617966521019492,0.2044303662152608
-0.00509625,3.617966521019492,0.2047675258615282
-0.005095,3.617966521019492,0.2044303662152609
-0.00509375,3.617966521019492,0.2051046855077957
-0.0050925,3.617966521019492,0.2054418451540633
-0.00509125,3.617966521019492,0.2051046855077959
-0.00509,3.617966521019492,0.2044303662152606
-0.00508875,3.617966521019492,0.2054418451540628
-0.0050875,3.617966521019492,0.2054418451540633
-0.00508625,3.617966521019492,0.2051046855077956
-0.005085,3.617966521019492,0.2047675258615282
-0.00508375,3.617966521019492,0.2047675258615282
-0.0050825,3.617966521019492,0.2047675258615282
-0.00508125,3.617966521019492,0.2051046855077957
-0.00508,3.617966521019492,0.2044303662152609
-0.00507875,3.617966521019492,0.2040932065689931
-0.0050775,3.617966521019492,0.2047675258615279
-0.00507625,3.617966521019492,0.2047675258615282
-0.005075,3.617966521019492,0.2051046855077957
-0.00507375,3.617966521019492,0.2051046855077957
-0.0050725,3.617966521019492,0.2047675258615282
-0.00507125,3.617966521019492,0.2047675258615282
-0.00507,3.617966521019492,0.2047675258615282
-0.00506875,3.617966521019492,0.2047675258615282
-0.0050675,3.617966521019492,0.2051046855077957
-0.00506625,3.617966521019492,0.2051046855077956
-0.005065,3.617966521019492,0.2047675258615282
-0.00506375,3.617966521019492,0.2047675258615282
-0.0050625,3.617966521019492,0.2047675258615282
-0.00506125,3.617966521019492,0.2047675258615282
-0.00506,3.617966521019492,0.2047675258615282
-0.00505875,3.617966521019492,0.2047675258615282
-0.0050575,3.617966521019492,0.2051046855077956
-0.00505625,3.617966521019492,0.2047675258615282
-0.005055,3.617966521019492,0.2044303662152608
-0.00505375,3.617966521019492,0.2047675258615282
-0.0050525,3.617966521019492,0.2051046855077954
-0.00505125,3.617966521019492,0.2044303662152606
-0.00505,3.617966521019492,0.2047675258615282
-0.00504875,3.617966521019492,0.2047675258615282
-0.0050475,3.617966521019492,0.2051046855077957
-0.00504625,3.617966521019492,0.2047675258615284
-0.005045,3.617966521019492,0.2047675258615282
-0.00504375,3.617966521019492,0.2047675258615279
-0.0050425,3.617966521019492,0.2040932065689931
-0.00504125,3.617966521019492,0.2044303662152606
-0.00504,3.617966521019492,0.2044303662152606
-0.00503875,3.617966521019492,0.2044303662152606
-0.0050375,3.617966521019492,0.2044303662152606
-0.00503625,3.617966521019492,0.2044303662152606
-0.005035,3.617966521019492,0.2051046855077954
-0.00503375,3.617966521019492,0.2054418451540633
-0.0050325,3.617966521019492,0.2051046855077956
-0.00503125,3.617966521019492,0.2047675258615282
-0.00503,3.617966521019492,0.2051046855077957
-0.00502875,3.617966521019492,0.2051046855077957
-0.0050275,3.617966521019492,0.2057790048003308
-0.00502625,3.617966521019492,0.205104685507796
-0.005025,3.617966521019492,0.2047675258615282
-0.00502375,3.617966521019492,0.2047675258615282
-0.0050225,3.617966521019492,0.2047675258615282
-0.00502125,3.617966521019492,0.2047675258615282
-0.00502,3.617966521019492,0.2047675258615282
-0.00501875,3.617966521019492,0.2047675258615282
-0.0050175,3.617966521019492,0.2051046855077957
-0.00501625,3.617966521019492,0.2047675258615282
-0.005015,3.617966521019492,0.2051046855077956
-0.00501375,3.617966521019492,0.2047675258615282
-0.0050125,3.617966521019492,0.2044303662152608
-0.00501125,3.617966521019492,0.2047675258615282
-0.00501,3.617966521019492,0.2051046855077956
-0.00500875,3.617966521019492,0.2047675258615282
-0.0050075,3.617966521019492,0.2051046855077957
-0.00500625,3.617966521019492,0.2051046855077957
-0.005005,3.617966521019492,0.2047675258615282
-0.00500375,3.617966521019492,0.2051046855077956
-0.0050025,3.617966521019492,0.2051046855077957
-0.00500125,3.617966521019492,0.205104685507796
-0.005,3.617966521019492,0.2057790048003308
-0.00499875,3.617966521019492,0.2044303662152606
-0.0049975,3.617966521019492,0.2047675258615282
-0.00499625,3.617966521019492,0.2051046855077957
-0.004995,3.617966521019492,0.2057790048003305
-0.00499375,3.617966521019492,0.2051046855077957
-0.0049925,3.617966521019492,0.2051046855077957
-0.00499125,3.617966521019492,0.2047675258615282
-0.00499,3.617966521019492,0.205441845154063
-0.00498875,3.617966521019492,0.2047675258615282
-0.0049875,3.617966521019492,0.2040932065689931
-0.00498625,3.617966521019492,0.2044303662152606
-0.004985,3.617966521019492,0.2054418451540633
-0.00498375,3.617966521019492,0.2047675258615285
-0.0049825,3.617966521019492,0.2047675258615282
-0.00498125,3.617966521019492,0.2040932065689935
-0.00498,3.617966521019492,0.2051046855077957
-0.00497875,3.617966521019492,0.2051046855077959
-0.0049775,3.617966521019492,0.2054418451540633
-0.00497625,3.617966521019492,0.2054418451540633
-0.004975,3.617966521019492,0.2044303662152606
-0.00497375,3.617966521019492,0.2047675258615282
-0.0049725,3.617966521019492,0.2047675258615282
-0.00497125,3.617966521019492,0.2047675258615282
-0.00497,3.617966521019492,0.2051046855077957
-0.00496875,3.617966521019492,0.2051046855077957
-0.0049675,3.617966521019492,0.2051046855077956
-0.00496625,3.617966521019492,0.2047675258615282
-0.004965,3.617966521019492,0.2051046855077957
-0.00496375,3.617966521019492,0.2047675258615282
-0.0049625,3.617966521019492,0.2047675258615282
-0.00496125,3.617966521019492,0.2047675258615282
-0.00496,3.617966521019492,0.2051046855077957
-0.00495875,3.617966521019492,0.2044303662152608
-0.0049575,3.617966521019492,0.2047675258615282
-0.00495625,3.617966521019492,0.2051046855077957
-0.004955,3.617966521019492,0.2054418451540633
-0.00495375,3.617966521019492,0.2044303662152606
-0.0049525,3.617966521019492,0.2054418451540628
-0.00495125,3.617966521019492,0.2047675258615282
-0.00495,3.617966521019492,0.2047675258615282
-0.00494875,3.617966521019492,0.2047675258615282
-0.0049475,3.617966521019492,0.2051046855077954
-0.00494625,3.617966521019492,0.2044303662152606
-0.004945,3.617966521019492,0.2047675258615282
-0.00494375,3.617966521019492,0.2040932065689931
-0.0049425,3.617966521019492,0.2044303662152606
-0.00494125,3.617966521019492,0.2044303662152606
-0.00494,3.617966521019492,0.2047675258615282
-0.00493875,3.617966521019492,0.2051046855077956
-0.0049375,3.617966521019492,0.2040932065689931
-0.00493625,3.617966521019492,0.2047675258615282
-0.004935,3.617966521019492,0.2047675258615282
-0.00493375,3.617966521019492,0.2047675258615282
-0.0049325,3.617966521019492,0.2047675258615282
-0.00493125,3.617966521019492,0.2047675258615282
-0.00493,3.617966521019492,0.2051046855077956
-0.00492875,3.617966521019492,0.2044303662152606
-0.0049275,3.617966521019492,0.2044303662152609
-0.00492625,3.617966521019492,0.2051046855077957
-0.004925,3.617966521019492,0.2051046855077956
-0.00492375,3.617966521019492,0.2047675258615282
-0.0049225,3.617966521019492,0.2047675258615282
-0.00492125,3.617966521019492,0.2047675258615282
-0.00492,3.617966521019492,0.2047675258615282
-0.00491875,3.617966521019492,0.2047675258615282
-0.0049175,3.617966521019492,0.2047675258615282
-0.00491625,3.617966521019492,0.2044303662152609
-0.004915,3.617966521019492,0.2051046855077957
-0.00491375,3.617966521019492,0.2047675258615282
-0.0049125,3.617966521019492,0.2047675258615282
-0.00491125,3.617966521019492,0.2047675258615282
-0.00491,3.617966521019492,0.2047675258615282
-0.00490875,3.617966521019492,0.2044303662152606
-0.0049075,3.617966521019492,0.2037560469227258
-0.00490625,3.617966521019492,0.2044303662152606
-0.004905,3.617966521019492,0.2044303662152608
-0.00490375,3.617966521019492,0.2047675258615282
-0.0049025,3.617966521019492,0.2047675258615282
-0.00490125,3.617966521019492,0.2047675258615282
-0.0049,3.617966521019492,0.2047675258615282
-0.00489875,3.617966521019492,0.2051046855077956
-0.0048975,3.617966521019492,0.2044303662152606
-0.00489625,3.617966521019492,0.204767525861528
-0.004895,3.617966521019492,0.2051046855077957
-0.00489375,3.617966521019492,0.2047675258615284
-0.0048925,3.617966521019492,0.2051046855077957
-0.00489125,3.617966521019492,0.2044303662152606
-0.00489,3.617966521019492,0.2044303662152606
-0.00488875,3.617966521019492,0.2047675258615282
-0.0048875,3.617966521019492,0.2047675258615282
-0.00488625,3.617966521019492,0.2051046855077957
-0.004885,3.617966521019492,0.2044303662152606
-0.00488375,3.617966521019492,0.2044303662152606
-0.0048825,3.617966521019492,0.204767525861528
-0.00488125,3.617966521019492,0.2044303662152606
-0.00488,3.617966521019492,0.2051046855077957
-0.00487875,3.617966521019492,0.2051046855077957
-0.0048775,3.617966521019492,0.2047675258615282
-0.00487625,3.617966521019492,0.2047675258615282
-0.004875,3.617966521019492,0.2051046855077957
-0.00487375,3.617966521019492,0.2044303662152606
-0.0048725,3.617966521019492,0.2044303662152606
-0.00487125,3.617966521019492,0.2051046855077956
-0.00487,3.617966521019492,0.2047675258615282
-0.00486875,3.617966521019492,0.2047675258615282
-0.0048675,3.617966521019492,0.2051046855077956
-0.00486625,3.617966521019492,0.2040932065689931
-0.004865,3.617966521019492,0.2047675258615279
-0.00486375,3.617966521019492,0.2044303662152606
-0.0048625,3.617966521019492,0.204767525861528
-0.00486125,3.617966521019492,0.2044303662152606
-0.00486,3.617966521019492,0.2051046855077957
-0.00485875,3.617966521019492,0.2051046855077957
-0.0048575,3.617966521019492,0.2047675258615282
-0.00485625,3.617966521019492,0.2051046855077956
-0.004855,3.617966521019492,0.2047675258615282
-0.00485375,3.617966521019492,0.2044303662152608
-0.0048525,3.617966521019492,0.2040932065689931
-0.00485125,3.617966521019492,0.2051046855077957
-0.00485,3.617966521019492,0.2051046855077957
-0.00484875,3.617966521019492,0.2047675258615282
-0.0048475,3.617966521019492,0.2051046855077957
-0.00484625,3.617966521019492,0.2051046855077957
-0.004845,3.617966521019492,0.2051046855077957
-0.00484375,3.617966521019492,0.2051046855077957
-0.0048425,3.617966521019492,0.2047675258615279
-0.00484125,3.617966521019492,0.2040932065689931
-0.00484,3.617966521019492,0.2044303662152611
-0.00483875,3.617966521019492,0.2054418451540633
-0.0048375,3.617966521019492,0.2057790048003308
-0.00483625,3.617966521019492,0.2054418451540633
-0.004835,3.617966521019492,0.2044303662152606
-0.00483375,3.617966521019492,0.204767525861528
-0.0048325,3.617966521019492,0.2047675258615282
-0.00483125,3.617966521019492,0.2051046855077957
-0.00483,3.617966521019492,0.2051046855077957
-0.00482875,3.617966521019492,0.2047675258615284
-0.0048275,3.617966521019492,0.2051046855077957
-0.00482625,3.617966521019492,0.2047675258615282
-0.004825,3.617966521019492,0.2051046855077956
-0.00482375,3.617966521019492,0.2054418451540633
-0.0048225,3.617966521019492,0.2054418451540633
-0.00482125,3.617966521019492,0.2047675258615282
-0.00482,3.617966521019492,0.2047675258615285
-0.00481875,3.617966521019492,0.2054418451540633
-0.0048175,3.617966521019492,0.2047675258615282
-0.00481625,3.617966521019492,0.2047675258615282
-0.004815,3.617966521019492,0.2047675258615282
-0.00481375,3.617966521019492,0.2051046855077956
-0.0048125,3.617966521019492,0.2061161644465984
-0.00481125,3.617966521019492,0.2054418451540636
-0.00481,3.617966521019492,0.2047675258615282
-0.00480875,3.617966521019492,0.2057790048003305
-0.0048075,3.617966521019492,0.2051046855077957
-0.00480625,3.617966521019492,0.2047675258615282
-0.004805,3.617966521019492,0.2047675258615282
-0.00480375,3.617966521019492,0.2047675258615282
-0.0048025,3.617966521019492,0.2047675258615282
-0.00480125,3.617966521019492,0.2051046855077957
-0.0048,3.617966521019492,0.2051046855077956
-0.00479875,3.617966521019492,0.2047675258615282
-0.0047975,3.617966521019492,0.2047675258615284
-0.00479625,3.617966521019492,0.2051046855077957
-0.004795,3.617966521019492,0.2054418451540633
-0.00479375,3.617966521019492,0.2057790048003308
-0.0047925,3.617966521019492,0.2054418451540633
-0.00479125,3.617966521019492,0.2051046855077959
-0.00479,3.617966521019492,0.2051046855077957
-0.00478875,3.617966521019492,0.2051046855077957
-0.0047875,3.617966521019492,0.2051046855077957
-0.00478625,3.617966521019492,0.2054418451540635
-0.004785,3.617966521019492,0.2057790048003308
-0.00478375,3.617966521019492,0.2051046855077957
-0.0047825,3.617966521019492,0.2044303662152609
-0.00478125,3.617966521019492,0.2054418451540633
-0.00478,3.617966521019492,0.2051046855077959
-0.00477875,3.617966521019492,0.2051046855077957
-0.0047775,3.617966521019492,0.2057790048003304
-0.00477625,3.617966521019492,0.2047675258615282
-0.004775,3.617966521019492,0.2047675258615282
-0.00477375,3.617966521019492,0.2051046855077957
-0.0047725,3.617966521019492,0.2054418451540633
-0.00477125,3.617966521019492,0.2057790048003307
-0.00477,3.617966521019492,0.2054418451540633
-0.00476875,3.617966521019492,0.2047675258615285
-0.0047675,3.617966521019492,0.2051046855077957
-0.00476625,3.617966521019492,0.204767525861528
-0.004765,3.617966521019492,0.2044303662152606
-0.00476375,3.617966521019492,0.2051046855077957
-0.0047625,3.617966521019492,0.2054418451540633
-0.00476125,3.617966521019492,0.2054418451540633
-0.00476,3.617966521019492,0.2057790048003307
-0.00475875,3.617966521019492,0.2057790048003308
-0.0047575,3.617966521019492,0.2051046855077959
-0.00475625,3.617966521019492,0.2054418451540633
-0.004755,3.617966521019492,0.2057790048003304
-0.00475375,3.617966521019492,0.2047675258615282
-0.0047525,3.617966521019492,0.2051046855077957
-0.00475125,3.617966521019492,0.2051046855077957
-0.00475,3.617966521019492,0.2051046855077957
-0.00474875,3.617966521019492,0.2054418451540631
-0.0047475,3.617966521019492,0.2047675258615282
-0.00474625,3.617966521019492,0.2047675258615284
-0.004745,3.617966521019492,0.2051046855077957
-0.00474375,3.617966521019492,0.2051046855077956
-0.0047425,3.617966521019492,0.2047675258615282
-0.00474125,3.617966521019492,0.2051046855077957
-0.00474,3.617966521019492,0.2051046855077957
-0.00473875,3.617966521019492,0.2051046855077957
-0.0047375,3.617966521019492,0.2047675258615284
-0.00473625,3.617966521019492,0.2054418451540633
-0.004735,3.617966521019492,0.2054418451540633
-0.00473375,3.617966521019492,0.2054418451540633
-0.0047325,3.617966521019492,0.2044303662152606
-0.00473125,3.617966521019492,0.2047675258615282
-0.00473,3.617966521019492,0.2051046855077957
-0.00472875,3.617966521019492,0.2044303662152609
-0.0047275,3.617966521019492,0.2051046855077957
-0.00472625,3.617966521019492,0.2054418451540631
-0.004725,3.617966521019492,0.2057790048003308
-0.00472375,3.617966521019492,0.2057790048003307
-0.0047225,3.617966521019492,0.2054418451540633
-0.00472125,3.617966521019492,0.2051046855077957
-0.00472,3.617966521019492,0.2054418451540633
-0.00471875,3.617966521019492,0.2051046855077957
-0.0047175,3.617966521019492,0.2054418451540631
-0.00471625,3.617966521019492,0.2047675258615282
-0.004715,3.617966521019492,0.205441845154063
-0.00471375,3.617966521019492,0.2047675258615282
-0.0047125,3.617966521019492,0.2051046855077957
-0.00471125,3.617966521019492,0.2051046855077957
-0.00471,3.617966521019492,0.2054418451540633
-0.00470875,3.617966521019492,0.2051046855077957
-0.0047075,3.617966521019492,0.2051046855077957
-0.00470625,3.617966521019492,0.2047675258615284
-0.004705,3.617966521019492,0.2047675258615282
-0.00470375,3.617966521019492,0.2047675258615285
-0.0047025,3.617966521019492,0.2054418451540633
-0.00470125,3.617966521019492,0.205104685507796
-0.0047,3.617966521019492,0.2057790048003308
-0.00469875,3.617966521019492,0.2054418451540633
-0.0046975,3.617966521019492,0.2051046855077959
-0.00469625,3.617966521019492,0.2047675258615282
-0.004695,3.617966521019492,0.2051046855077956
-0.00469375,3.617966521019492,0.2051046855077957
-0.0046925,3.617966521019492,0.2047675258615285
-0.00469125,3.617966521019492,0.2054418451540633
-0.00469,3.617966521019492,0.2051046855077957
-0.00468875,3.617966521019492,0.2047675258615282
-0.0046875,3.617966521019492,0.2057790048003308
-0.00468625,3.617966521019492,0.2047675258615287
-0.004685,3.617966521019492,0.2044303662152606
-0.00468375,3.617966521019492,0.2054418451540628
-0.0046825,3.617966521019492,0.2051046855077957
-0.00468125,3.617966521019492,0.2051046855077956
-0.00468,3.617966521019492,0.2047675258615282
-0.00467875,3.617966521019492,0.2051046855077957
-0.0046775,3.617966521019492,0.2051046855077957
-0.00467625,3.617966521019492,0.2054418451540633
-0.004675,3.617966521019492,0.2051046855077959
-0.00467375,3.617966521019492,0.2054418451540633
-0.0046725,3.617966521019492,0.2051046855077957
-0.00467125,3.617966521019492,0.2051046855077957
-0.00467,3.617966521019492,0.2047675258615284
-0.00466875,3.617966521019492,0.2051046855077957
-0.0046675,3.617966521019492,0.2047675258615282
-0.00466625,3.617966521019492,0.2051046855077957
-0.004665,3.617966521019492,0.2051046855077957
-0.00466375,3.617966521019492,0.2054418451540631
-0.0046625,3.617966521019492,0.2051046855077957
-0.00466125,3.617966521019492,0.205441845154063
-0.00466,3.617966521019492,0.2047675258615282
-0.00465875,3.617966521019492,0.2047675258615284
-0.0046575,3.617966521019492,0.2051046855077957
-0.00465625,3.617966521019492,0.2051046855077957
-0.004655,3.617966521019492,0.2054418451540633
-0.00465375,3.617966521019492,0.2051046855077957
-0.0046525,3.617966521019492,0.2054418451540631
-0.00465125,3.617966521019492,0.2054418451540633
-0.00465,3.617966521019492,0.2054418451540633
-0.00464875,3.617966521019492,0.2054418451540633
-0.0046475,3.617966521019492,0.2047675258615282
-0.00464625,3.617966521019492,0.2047675258615282
-0.004645,3.617966521019492,0.2051046855077957
-0.00464375,3.617966521019492,0.2057790048003305
-0.0046425,3.617966521019492,0.2047675258615282
-0.00464125,3.617966521019492,0.2051046855077956
-0.00464,3.617966521019492,0.2047675258615282
-0.00463875,3.617966521019492,0.2051046855077957
-0.0046375,3.617966521019492,0.2051046855077957
-0.00463625,3.617966521019492,0.2047675258615282
-0.004635,3.617966521019492,0.2051046855077957
-0.00463375,3.617966521019492,0.2051046855077957
-0.0046325,3.617966521019492,0.2054418451540631
-0.00463125,3.617966521019492,0.2047675258615282
-0.00463,3.617966521019492,0.2047675258615282
-0.00462875,3.617966521019492,0.2047675258615282
-0.0046275,3.617966521019492,0.204767525861528
-0.00462625,3.617966521019492,0.2044303662152606
-0.004625,3.617966521019492,0.2051046855077957
-0.00462375,3.617966521019492,0.2044303662152606
-0.0046225,3.617966521019492,0.2040932065689931
-0.00462125,3.617966521019492,0.2044303662152605
-0.00462,3.617966521019492,0.2044303662152606
-0.00461875,3.617966521019492,0.2051046855077957
-0.0046175,3.617966521019492,0.2051046855077957
-0.00461625,3.617966521019492,0.2044303662152606
-0.004615,3.617966521019492,0.2044303662152606
